<?xml version="1.0" standalone="no"?>
<!DOCTYPE svg PUBLIC "-//W3C//DTD SVG 1.1//EN" "http://www.w3.org/Graphics/SVG/1.1/DTD/svg11.dtd">
<svg xmlns="http://www.w3.org/2000/svg"><defs><font id="flaticon" horiz-adv-x="512"><font-face units-per-em="512" ascent="448" descent="-64" x-height="240" cap-height="480"/><missing-glyph horiz-adv-x="512"/><glyph unicode="&#xE000;" glyph-name="fuel4" horiz-adv-x="498" d="M247.67146666667 448H23.483733333333C10.513066666667 448 0 437.48693333333 0 424.51626666667v-479.1296h271.12106666667V424.51626666667C271.12106666667 437.48693333333 260.64213333333 448 247.67146666667 448zM237.3632 268.86826666667H33.792V402.19306666667h203.5712V268.86826666667zM378.84586666667 -64c-55.637333333333 0 -89.3952 38.2976 -92.603733333333 105.0624c-1.2970666666667 26.3168 5.2906666666667 55.296 12.253866666667 85.981866666667 c5.2224 23.074133333333 10.683733333333 46.8992 13.277866666667 71.3728c2.56 24.541866666667 -1.2970666666667 32.904533333333 -3.8229333333333 35.703466666667C303.24053333333 239.34293333333 289.41653333333 239.34293333333 276.03626666667 239.34293333333H269.44853333333V271.90613333333h6.5877333333333 c19.524266666667 0 41.710933333333 0 56.1152 -16.008533333333c11.229866666667 -12.458666666667 15.0528 -31.8464 12.014933333333 -60.893866666667c-2.7648 -26.350933333333 -8.3968 -51.2 -13.858133333333 -75.195733333333 c-6.4512 -28.433066666667 -12.5952 -55.330133333333 -11.537066666667 -77.141333333333c2.3552 -49.186133333333 22.596266666667 -74.103466666667 60.1088 -74.103466666667c41.198933333333 0 62.088533333333 26.043733333333 62.088533333333 77.380266666667 c0 42.461866666667 -13.2096 75.502933333333 -21.947733333333 97.3824l-3.4474666666667 8.8064c-9.1136 23.825066666667 -10.308266666667 45.192533333333 -11.264 77.585066666667c-0.88746666666667 31.4368 -0.54613333333333 65.058133333333 8.1578666666667 98.269866666667 c8.7722666666667 33.416533333333 26.794666666667 49.698133333333 56.6272 76.663466666667l7.2021333333333 6.5536l21.9136 -24.098133333333l-7.3045333333333 -6.5877333333333c-27.886933333333 -25.258666666667 -40.618666666667 -36.7616 -46.933333333333 -60.8256 c-7.68 -29.184 -7.9189333333333 -60.040533333333 -7.0997333333333 -89.019733333333c0.88746666666667 -31.607466666667 2.1162666666667 -48.5376 9.1136 -66.935466666667l3.2768 -8.2944c9.1136 -22.7328 24.2688 -60.7232 24.2688 -109.4656 C473.4976 -22.903466666667 438.10133333333 -64 378.84586666667 -64zM420.7616 224.18773333333l-0.8192 32.5632c0 0 25.224533333333 0.64853333333333 39.5264 0.8192C459.776 263.33866666667 459.776 272.34986666667 459.776 281.8048 V286.65173333333c0 38.946133333333 -6.0757333333333 44.100266666667 -13.073066666667 50.107733333333c-2.56 2.1504 -5.12 4.4032 -7.5776 7.0997333333333l23.9616 22.016c1.536 -1.6725333333333 3.1744 -3.0037333333333 4.7445333333333 -4.3349333333333 c13.892266666667 -11.8784 24.507733333333 -24.8832 24.507733333333 -74.8544v-4.8469333333333c0 -18.261333333333 0.034133333333333 -28.330666666667 -1.6042666666667 -36.010666666667c-2.7989333333333 -13.175466666667 -11.844266666667 -20.753066666667 -24.8832 -20.753066666667 C455.30453333333 225.0752 420.79573333333 224.18773333333 420.7616 224.18773333333z"/><glyph unicode="&#xE001;" glyph-name="horse31" horiz-adv-x="512" d="M494.88896 263.39328c-1.95072 0.67072 -3.65056 2.33984 -5.21216 3.81952c-1.32608 1.25952 -2.23744 2.944 -3.42528 4.35712 c-2.53952 3.00544 -5.13536 5.95456 -7.72096 8.91904c-1.6896 1.94048 -3.32288 3.93728 -5.12512 5.77024c-3.33824 3.39456 -6.77888 6.68672 -10.17344 10.02496 c-0.18944 0.18432 -0.32768 0.42496 -0.53248 0.59904c-2.97472 2.51904 -6.44608 4.64896 -8.79104 7.6544c-1.18784 1.52064 -2.0736 3.2768 -2.89792 5.12512 c-1.32608 2.97472 -4.03456 5.49888 -6.08256 5.23264c-1.05984 -0.13824 -2.0992 -0.64 -2.83648 -2.15552c-0.2048 -0.41984 -3.01568 -0.20992 -4.03456 0.52224 c-2.01728 1.44896 -3.97312 2.97984 -5.91872 4.54656c-3.21024 2.58048 -6.39488 3.06688 -7.95136 1.85856c-0.75264 -0.58368 -1.73568 -0.71168 -3.328 0.23552 c-3.69664 2.19648 -7.69024 3.9168 -11.63264 5.66784c-2.1504 0.95232 -4.44416 1.5872 -6.71232 2.24768c-0.8704 0.256 -2.4832 0.52224 -2.64192 0.21504 c-0.46592 -0.91136 -0.77824 -2.28864 -0.39424 -3.14368c0.4352 -0.9728 2.10432 -1.41312 2.49856 -2.38592c0.6656 -1.65376 0.88064 -3.5328 0.91136 -5.32992 c0.00512 -0.21504 -2.28864 -0.46592 -3.51232 -0.7168c-1.9968 -0.4096 -4.00384 -0.78336 -5.98528 -1.27488c-0.9984 -0.24576 -1.90976 -0.87552 -2.90816 -1.07008 c-2.47808 -0.47616 -4.96128 -0.93696 -7.424 -1.3824c-4.10624 -0.7424 -9.71776 2.3296 -12.26752 0.45056s-3.072 -5.05344 -2.58048 -5.68832 c0.49152 -0.63488 -0.71168 -1.77152 -2.69312 -2.53952c-1.97632 -0.768 -3.68128 -1.7664 -3.81952 -2.21696c-0.09216 -0.30208 -0.22016 -0.5888 -0.44544 -0.7168 c-3.79904 -2.21696 -7.68512 -4.28032 -11.48416 -6.49728c-0.6912 -0.40448 -1.48992 -1.3056 -1.50016 -1.98656c-0.00512 -0.54272 1.08032 -1.15712 1.75104 -1.63328 c0.60928 -0.4352 1.23904 -0.8448 2.00192 -1.3312c1.12128 -0.7168 -0.18432 -2.79552 -2.90816 -4.63872c-1.72032 -1.16736 -3.33824 -2.24256 -4.97664 -3.2768 c-0.6912 -0.4352 -1.8944 -0.75264 -2.5344 -0.44544c-3.5328 1.69472 -5.28384 -0.41984 -7.51616 -2.69312c-2.55488 -2.60096 -4.03968 -6.42048 -8.81152 -6.78912 c-3.9936 -0.31232 -7.89504 -2.05312 -11.77088 -3.34336c-0.93184 -0.3072 -1.84832 -1.2032 -2.38592 -2.0736c-1.69472 -2.74944 -3.32288 -5.56032 -5.44256 -7.92064 c-3.54816 -3.95776 -5.27872 -5.89824 -3.54304 -8.4736s0.50176 -5.10464 1.16736 -4.6592c0.45568 0.3072 0.80384 0.60416 1.2032 0.80384 c2.20672 1.13152 4.40832 2.90816 6.71744 3.08736c5.2736 0.4096 10.61888 0.14848 15.91808 -0.12288c0.96256 -0.0512 1.92 -0.3072 2.8672 -0.62464 c0.384 -0.128 0.67072 -0.3072 0.86016 -0.51712c-53.03808 -19.80928 -124.11392 20.9408 -167.53664 -21.43232c-15.70304 2.54464 -29.83424 -5.248 -45.37344 -6.31808 c-0.88064 0.00512 -1.78176 0.02048 -2.57024 -0.02048c-9.45664 3.2 -19.08224 3.6608 -28.65664 0.91136c-7.92576 -1.31584 -13.92128 -6.81984 -20.23424 -11.40224 c-0.0256 -0.01536 -0.04096 -0.03584 -0.06656 -0.05632c-12.52352 -3.21536 -24.71424 -7.8592 -37.77024 -7.48032c-2.78528 1.28512 -5.54496 2.6112 -7.95648 4.3776 c-5.00224 3.66592 -7.23456 8.42752 -7.81312 8.05888c-0.49664 -0.31232 -0.896 -0.5888 -0.8704 -0.82432c0.35328 -3.64544 -0.01536 -7.75168 1.58208 -10.8032 c4.16256 -7.94624 11.40736 -12.84096 19.29728 -16.80896c0.68096 -0.34304 1.28 -0.8448 1.88416 -1.41312c0.95744 -0.89088 3.0208 1.48992 6.27712 1.15712 c3.26144 -0.32768 2.67264 -4.8896 -3.77344 -6.54848c-6.44608 -1.65376 -7.34208 -5.8624 -1.56672 -6.61504c3.5584 -0.46592 7.08096 -0.44032 10.5216 -0.80896 c2.80064 -0.30208 5.80096 -0.33792 8.48896 0.35328c3.93728 1.01888 7.65952 2.85184 11.52 4.20352c0.57344 0.19968 1.50016 -0.17408 2.08896 -0.55296 c4.09088 -2.63168 8.06912 -5.44768 12.22656 -7.97184c2.01216 -1.22368 4.41344 -2.8672 6.50752 -2.70336c6.6048 0.512 11.34592 -2.63168 16.4096 -6.15936 c4.5056 -3.14368 9.56928 -5.9136 15.59552 -2.70336c1.60768 0.85504 3.32288 1.52064 5.13024 2.15552c2.90304 1.024 7.76704 7.05024 10.85952 13.45536 s9.3952 8.41216 12.16 3.1488c2.75968 -5.26336 3.34336 -11.97056 4.98688 -14.08512c1.00864 -1.29536 1.98144 -2.57536 2.90816 -3.88608 c5.92384 -8.3968 -1.02912 -21.59104 -7.72096 -24.81664c-3.82976 -1.84832 -7.84384 -3.31264 -11.75552 -4.98688c-1.4336 -0.6144 -2.85696 -1.23904 -4.28544 -1.87392 c-2.36032 -1.0496 -4.5824 -2.75456 -5.00224 -3.79392c-0.25088 -0.62464 -0.55808 -1.24928 -0.98816 -1.77152c-2.82624 -3.42016 -4.98688 -6.95808 -5.55008 -11.57632 c-0.512 -4.15232 -2.00192 -8.17664 -2.92352 -12.288c-0.62464 -2.78016 -0.92672 -5.63712 -1.52064 -8.4224c-0.19456 -0.91136 -0.65536 -1.99168 -1.35168 -2.53952 c-3.1744 -2.48832 -5.22752 -5.4528 -5.61664 -9.63072c-0.1792 -1.93536 -0.84992 -4.03456 -1.93536 -5.632c-3.81952 -5.61664 -5.76512 -11.52 -4.02432 -18.31424 c0.66048 -2.5856 -0.512 -3.712 -3.09248 -3.54304c-0.99328 0.06656 -6.38464 -4.03456 -6.28224 -4.96128c0.39424 -3.69152 0.56832 -7.45984 1.52576 -11.01312 c0.55808 -2.06848 2.46784 -4.59776 5.15584 -2.72896c1.56672 1.09056 3.00544 2.29888 4.41344 3.5584c2.3296 2.08896 4.03456 4.0448 3.85024 4.29056 C107.84256 38.31296 108.62592 38.4 109.88032 38.4s1.16224 1.16736 0.08704 2.816c-1.19808 1.83808 0.09728 1.40288 1.36192 2.42688 c2.2272 1.79712 4.72576 3.47648 6.59456 5.59104c2.18112 2.47296 4.85888 5.28896 5.44256 8.28928c1.05472 5.39648 0.512 11.11552 1.04448 16.64512 c0.18944 1.93536 1.55648 3.77344 2.44736 5.62176c0.18432 0.37888 0.98304 0.72192 0.92672 0.91648c-1.85856 6.5536 3.5584 10.46016 5.89824 15.35488 c1.31584 2.75456 3.3536 5.8112 8.25344 5.08928c3.25632 -0.47616 6.95296 1.91488 10.43456 3.08736c1.63328 0.54784 3.25632 1.12128 4.86912 1.6896 c2.68288 0.95232 6.144 2.78528 7.74144 4.06528c0.96256 0.77312 1.96608 1.5104 3.05152 2.08384c5.15584 2.72384 10.44992 5.1968 15.74912 7.63904 c2.4832 1.14688 5.08416 0.50688 5.33504 -2.28352c0.50176 -5.63712 1.09056 -11.4944 0.04608 -16.95744c-0.77312 -4.03968 -0.26112 -6.77376 2.51904 -9.24672 c3.06688 -2.73408 6.54336 -5.02784 9.472 -7.88992c2.88768 -2.82624 5.71392 -5.71392 8.5248 -8.63232c4.64896 -4.82304 8.064 -9.03168 7.63392 -9.39008 c-0.42496 -0.3584 2.88768 -2.0992 4.1984 -6.14912c0.7936 -2.45248 1.00864 -5.17632 2.2016 -7.36256c1.20832 -2.22208 2.7136 -4.31616 3.76832 -6.56896 c1.77152 -3.7888 6.4768 -6.75328 9.76384 -10.98752c3.28704 -4.23424 2.18624 -11.68896 4.81792 -12.78464c1.55648 -0.64512 3.32288 -0.7424 5.08416 -0.55296 c1.7664 0.18944 3.5072 0.58368 5.2224 1.03424c2.84672 0.74752 4.9664 2.59072 4.77696 4.08064c-0.128 0.99328 -0.26624 1.85344 -0.57856 2.65216 c-0.9216 2.37568 -1.18272 4.98176 -4.5312 6.10816c-2.06848 0.69632 -3.6864 3.36384 -5.00736 5.45792c-1.3824 2.2016 -1.86368 4.97664 -3.28704 7.1424 c-2.11456 3.22048 -4.86912 6.01088 -7.0656 9.18016c-5.15072 7.44448 -10.19904 14.95552 -15.13984 22.54336c-1.42848 2.19648 -2.3296 4.75136 -3.67104 7.00416 c-0.6912 12.5696 -0.27136 25.09824 0.37376 37.63712c0.01536 0.0512 0.04608 0.09728 0.05632 0.1536c1.07008 4.39808 2.15552 8.79616 3.15392 13.21472 c1.01376 4.46464 2.24256 8.9088 2.7904 13.43488c0.4096 3.35872 2.176 4.04992 4.8384 3.55328c2.37056 -0.44032 4.68992 -1.22368 6.97344 -2.03264 c5.6064 -1.98656 11.34592 -3.72224 16.71168 -6.24128c3.85024 -1.80736 6.92736 -5.29408 10.8032 -6.99904c6.25664 -2.74944 12.73344 -5.43744 19.39456 -6.7072 c8.51968 -1.62816 17.30048 -2.07872 25.99424 -2.54976c6.72256 -0.36352 13.4912 0.1536 20.224 -0.07168c1.03936 -0.03584 2.5856 -1.792 2.90304 -3.01056 c0.65024 -2.49856 0.70656 -5.1712 0.85504 -7.7824c0.05632 -1.01888 0.06656 -2.03776 0.06144 -3.01568c-0.01024 -1.66912 0.72192 -3.83488 1.64864 -4.84352 c0.55296 -0.60416 1.11104 -1.22368 1.6384 -1.8688c0.57856 -0.69632 0.77824 -1.80736 1.46432 -2.29888c4.46976 -3.21024 4.93568 -7.6032 4.21888 -12.58496 c-0.4864 -3.36896 -1.16224 -6.9376 -0.54272 -10.1888c0.85504 -4.51072 -1.18272 -6.8608 -4.48 -8.8832c-1.3568 -0.83456 -2.72896 -1.72032 -4.20864 -2.27328 c-6.62528 -2.47296 -12.3136 -7.7568 -20.17792 -6.5792c-1.8944 0.28672 -3.3536 -0.30208 -4.2496 -2.64192c-0.93696 -2.44224 -2.64192 -5.06368 -5.90336 -1.6384 c-0.54784 0.57856 -1.4848 0.7936 -2.68288 1.01376c-1.58208 0.29184 -3.95264 -4.5568 -5.30944 -10.91072s-0.82432 -11.136 1.19296 -10.69056 c1.3568 0.30208 2.49856 0.5632 3.63008 0.8704c4.55168 1.23904 7.40352 4.4032 9.92768 8.2432c1.024 1.55136 3.28192 2.76992 5.18144 3.18464 c5.99552 1.30048 12.55424 0.49152 17.4848 5.376c1.69472 1.67936 3.54816 3.26144 5.5296 4.58752c2.73408 1.83296 5.86752 3.10784 8.45824 5.10976 c2.83136 2.18624 5.60128 4.44928 8.35072 6.7328c4.56192 3.78368 8.13056 6.97856 7.94624 7.06048c-0.10752 0.04608 -0.2304 0.08192 -0.34816 0.06656 c-4.864 -0.57856 -5.5808 -0.15872 -4.49536 3.8144c0.01536 0.07168 0.06656 0.11264 0.08192 0.18432c0.03584 0.16896 0.0768 0.33792 0.11264 0.50688 c0.04096 0.13824 0.06656 0.24064 0.10752 0.38912c0.72192 2.4064 2.48832 5.25312 1.79712 7.1936c-0.0512 0.14336 -0.05632 0.28672 -0.1024 0.43008 c2.35008 10.1376 4.77696 20.224 5.63712 30.60224c2.90816 -0.0768 5.9392 -0.91648 8.6784 -0.3328c3.08224 0.65536 4.8384 -0.32768 6.5792 -2.47808 c3.18464 -3.93216 6.4 -7.83872 9.68192 -11.68896c3.41504 -3.99872 7.85408 -7.43424 10.16832 -11.97568c3.03616 -5.96992 5.13024 -12.6464 6.31808 -19.25632 c1.02912 -5.74464 3.74784 -9.98912 7.4496 -14.0288c4.92032 -5.36576 8.46848 -11.37152 9.28256 -18.82624c0.52224 -4.77184 0.83968 -9.90208 7.23456 -10.9568 c0.44032 -0.07168 1.03424 -0.95232 1.07008 -1.48992c0.1792 -2.77504 0.0512 -5.57568 0.34816 -8.33536c0.13312 -1.24416 0.68608 -3.03104 1.60256 -3.5072 c5.87776 -3.05664 12.27776 -2.39104 18.52416 -1.7152c1.2032 0.128 3.34848 3.11296 3.06176 3.58912c-1.96608 3.2768 -4.34688 6.32832 -6.81472 9.27232 c-1.92 2.29376 -5.97504 4.41856 -5.87776 6.46144c0.26112 5.36064 -3.54816 8.33536 -5.97504 11.5712c-1.65376 2.2016 -3.57376 4.21888 -4.79232 6.85056 c-0.44544 0.96256 -0.99328 1.87392 -1.56672 2.75968c-0.95232 1.47456 -1.96096 4.4544 -2.23232 6.67648c-0.16384 1.3312 -0.3328 2.67776 -0.50688 4.0192 c-1.00352 7.78752 -2.14528 15.39584 -7.1424 22.0416c-2.08896 2.78528 -2.75968 6.70208 -3.7888 10.19392c-0.57856 1.95584 -0.5632 4.08576 -0.83456 6.13376 c-0.24064 1.82784 -0.5376 3.65056 -0.73728 5.48352c-0.11264 1.04448 0.0512 2.12992 -0.14336 3.15392c-0.42496 2.24256 -0.93184 4.48 -1.536 6.6816 c-1.26464 4.62848 -1.82784 9.5488 -6.16448 12.78976c-2.57024 1.92512 -3.9936 4.27008 -1.32096 7.45472c1.19808 1.4336 2.18624 3.33312 2.51392 5.15584 c0.98816 5.43744 1.93024 10.92096 2.2784 16.42496c0.4352 6.93248 0.4352 13.91104 0.27136 20.85888c-0.08704 3.55328 -0.32768 7.32672 -1.5872 10.5728 c-0.72192 1.85856 -1.08032 3.82464 -1.152 5.79072c6.31808 13.71648 12.96384 27.01312 15.19616 41.87648c5.6576 1.60256 10.93632 4.13696 15.67744 7.81312 c10.3168 -7.28576 21.85728 -10.1632 34.11968 -8.54528c0.20992 -0.1792 0.4096 -0.3328 0.62464 -0.52736c2.7392 -2.47296 5.77024 -4.62848 8.76032 -6.8096 c0.56832 -0.41472 1.536 -0.48128 2.28864 -0.40448c4.81792 0.49152 8.38656 3.5328 12.20608 6.08256c2.69824 1.79712 3.7888 3.92704 2.47296 7.18336 c-0.37376 0.9216 0.21504 2.30912 0.54784 3.42528C500.7872 258.75456 498.57024 262.12352 494.88896 263.39328z"/><glyph unicode="&#xE002;" glyph-name="settings48" horiz-adv-x="512" d="M49.5616 255.5904c2.5088 -8.6016 5.9904 -16.896 10.3936 -24.6784l-12.544 -15.8208c-4.096 -5.1712 -3.6352 -12.544 0.9728 -17.2032l21.6064 -21.6064c4.6592 -4.6592 12.032 -5.0688 17.2032 -0.9728 l15.7184 12.4416c8.0896 -4.6592 16.6912 -8.2944 25.6512 -10.8544l2.3552 -20.224c0.768 -6.5536 6.2976 -11.4688 12.8512 -11.4688h30.5664c6.5536 0 12.0832 4.9152 12.8512 11.4688l2.2528 19.5072 c9.6256 2.5088 18.8416 6.2464 27.4944 11.1104l15.2064 -12.032c5.1712 -4.096 12.544 -3.6352 17.2032 0.9728l21.6064 21.6064c4.6592 4.6592 5.0688 12.032 0.9728 17.2032L260.096 230.0416 c4.9152 8.4992 8.7552 17.5616 11.3152 27.0336l18.2272 2.0992c6.5536 0.768 11.4688 6.2976 11.4688 12.8512v30.5664c0 6.5536 -4.9152 12.0832 -11.4688 12.8512l-17.9712 2.0992 c-2.4576 9.3696 -6.144 18.3296 -10.8544 26.7264l11.0592 13.9776c4.096 5.1712 3.6352 12.544 -0.9728 17.2032L249.344 397.0048c-4.6592 4.6592 -12.032 5.0688 -17.2032 0.9728l-13.568 -10.752 c-8.8064 5.1712 -18.2272 9.1136 -28.1088 11.776l-2.048 17.5616c-0.768 6.5536 -6.2976 11.4688 -12.8512 11.4688h-30.5664c-6.5536 0 -12.0832 -4.9152 -12.8512 -11.4688l-2.048 -17.5616 c-10.1376 -2.7136 -19.8144 -6.8096 -28.8256 -12.1856l-14.08 11.1616c-5.1712 4.096 -12.544 3.6352 -17.2032 -0.9728l-21.6064 -21.6064c-4.6592 -4.6592 -5.0688 -12.032 -0.9728 -17.2032l11.776 -14.8992 c-4.7104 -8.4992 -8.2944 -17.5616 -10.6496 -26.9824L29.696 314.1632c-6.5536 -0.768 -11.4688 -6.2976 -11.4688 -12.8512v-30.5664c0 -6.5536 4.9152 -12.0832 11.4688 -12.8512L49.5616 255.5904zM160.3072 338.2784 c27.8528 0 50.5344 -22.6816 50.5344 -50.5344s-22.6816 -50.5344 -50.5344 -50.5344c-27.8528 0 -50.5344 22.6816 -50.5344 50.5344S132.4544 338.2784 160.3072 338.2784zM462.4896 248.064l-16.128 13.6192c-4.9664 4.1984 -12.288 3.9936 -16.9984 -0.4608l-8.9088 -8.3456c-7.5264 3.6352 -15.5136 6.1952 -23.7568 7.68l-2.5088 12.288c-1.28 6.3488 -7.168 10.752 -13.6192 10.24 l-21.0432 -1.792c-6.4512 -0.5632 -11.52 -5.8368 -11.7248 -12.3392l-0.4096 -12.4928c-8.0896 -2.9184 -15.7184 -6.912 -22.6816 -11.9296l-10.6496 7.0656c-5.4272 3.584 -12.6464 2.56 -16.8448 -2.4064L283.5968 232.96 c-4.1984 -4.9664 -3.9936 -12.288 0.4608 -16.9984l9.3184 -9.9328c-3.2256 -7.2704 -5.5296 -14.8992 -6.8608 -22.7328l-13.312 -2.7136c-6.3488 -1.28 -10.752 -7.168 -10.24 -13.6192l1.792 -21.0432 c0.5632 -6.4512 5.8368 -11.52 12.3392 -11.7248l14.3872 -0.4608c2.6112 -6.8608 6.0416 -13.3632 10.1888 -19.456l-8.0384 -12.1344c-3.584 -5.4272 -2.56 -12.6464 2.4064 -16.8448l16.128 -13.6192 c4.9664 -4.1984 12.288 -3.9936 16.9984 0.4608l10.5472 9.8816c6.912 -3.2256 14.1824 -5.632 21.6576 -7.0656l2.9184 -14.4384c1.28 -6.3488 7.168 -10.752 13.6192 -10.24l21.0432 1.792 c6.4512 0.5632 11.52 5.8368 11.7248 12.3392l0.4608 14.1312c7.68 2.7136 14.9504 6.4 21.6576 10.9568l11.6224 -7.68c5.4272 -3.584 12.6464 -2.56 16.8448 2.4064l13.6192 16.128 c4.1984 4.9664 3.9936 12.288 -0.4608 16.9984l-9.3696 9.9328c3.4304 7.2704 5.9392 14.9504 7.3728 22.8352l12.8 2.6112c6.3488 1.28 10.752 7.168 10.24 13.6192l-1.792 21.0432 c-0.5632 6.4512 -5.8368 11.52 -12.3392 11.7248l-12.8512 0.4096c-2.6624 7.4752 -6.2464 14.5408 -10.7008 21.0944l7.0144 10.5472C468.48 236.5952 467.456 243.8656 462.4896 248.064zM383.1808 126.4128 c-22.7328 -1.9456 -42.8032 15.0016 -44.6976 37.7344c-1.9456 22.7328 15.0016 42.8032 37.7344 44.6976c22.7328 1.9456 42.8032 -15.0016 44.6976 -37.7344C422.8608 148.3776 405.9136 128.3072 383.1808 126.4128zM123.1872 69.7856c-6.4512 -0.6656 -11.4176 -6.0928 -11.4688 -12.5952l-0.1536 -12.9536c-0.1024 -6.5024 4.7104 -12.032 11.1616 -12.8512l9.5232 -1.2288c1.5872 -5.7856 3.84 -11.3152 6.7584 -16.5376 l-6.144 -7.5776c-4.096 -5.0688 -3.7888 -12.3392 0.768 -16.9984l9.0624 -9.2672c4.5568 -4.6592 11.8272 -5.1712 16.9984 -1.1776l7.6288 5.888c5.376 -3.1744 11.0592 -5.6832 16.9984 -7.424l1.024 -9.8304 c0.6656 -6.4512 6.0928 -11.4176 12.5952 -11.4688l12.9536 -0.1536c6.5024 -0.1024 12.032 4.7104 12.8512 11.1616l1.1776 9.3184c6.4512 1.5872 12.5952 3.9936 18.432 7.168l7.168 -5.7856 c5.0688 -4.096 12.3392 -3.7888 16.9984 0.768l9.2672 9.0624c4.6592 4.5568 5.1712 11.8272 1.1776 16.9984l-5.4784 7.1168c3.3792 5.632 5.9904 11.6224 7.7824 17.92l8.4992 0.8704 c6.4512 0.6656 11.4176 6.0928 11.4688 12.5952l0.1536 12.9536c0.1024 6.5024 -4.7104 12.032 -11.1616 12.8512l-8.2944 1.0752c-1.5872 6.2464 -3.9424 12.288 -7.0144 17.92l5.1712 6.3488 c4.096 5.0688 3.7888 12.3392 -0.768 16.9984l-9.0624 9.2672c-4.5568 4.6592 -11.8272 5.1712 -16.9984 1.1776l-6.1952 -4.7616c-5.8368 3.5328 -12.0832 6.2464 -18.6368 8.0896l-0.8192 8.0384 c-0.6656 6.4512 -6.0928 11.4176 -12.5952 11.4688l-12.9536 0.1536c-6.5024 0.1024 -12.032 -4.7104 -12.8512 -11.1616l-1.024 -7.9872c-6.7584 -1.7408 -13.2608 -4.4032 -19.3024 -7.8848l-6.4 5.2224 c-5.0688 4.096 -12.3392 3.7888 -16.9984 -0.768L135.168 112.6912c-4.6592 -4.5568 -5.1712 -11.8272 -1.1776 -16.9984l5.4784 -7.0656c-3.1744 -5.632 -5.6832 -11.6224 -7.3216 -17.92L123.1872 69.7856zM206.7968 84.4288 c18.5856 -0.2048 33.4848 -15.5136 33.28 -34.0992s-15.5136 -33.4848 -34.0992 -33.28c-18.5856 0.2048 -33.4848 15.5136 -33.28 34.0992S188.2112 84.6336 206.7968 84.4288z"/><glyph unicode="&#xE003;" glyph-name="train35" horiz-adv-x="512" d="M478.059 63.379l-47.455 34.557c24.678 16.312 40.426 44.298 40.426 74.996c0 45.823 -34.494 83.743 -78.881 89.157v80.063 h3.983c3.036 0 6.199 2.463 6.199 5.5v12c0 3.037 -3.163 5.5 -6.199 5.5h-71.667c-3.036 0 -5.5 -2.463 -5.5 -5.5v-12 c0 -3.037 2.464 -5.5 5.5 -5.5h4.688v-79.401H220.713v73.774c0 8.284 -6.716 15 -15 15H42.771c-5.873 0 -11.205 -3.427 -13.645 -8.769 s-1.537 -11.616 2.309 -16.055l34.426 -39.73v-188.86c0 -7.485 5.488 -13.671 12.656 -14.799c1.255 -35.758 30.717 -64.465 66.773 -64.465 c31.693 0 58.285 22.183 65.114 51.833h47.324c6.829 -29.65 33.421 -51.833 65.114 -51.833c17.285 0 33.059 6.597 44.936 17.405 h101.449c6.495 0 12.253 4.181 14.264 10.356C485.502 52.786 483.31 59.555 478.059 63.379zM145.291 70.681h25.471 c-5.15 -8.713 -14.637 -14.573 -25.471 -14.573c-16.307 0 -29.574 13.268 -29.574 29.574c0 16.306 13.268 29.572 29.574 29.572 c10.834 0 20.321 -5.86 25.472 -14.573h-25.472c-8.284 0 -15 -6.716 -15 -15S137.007 70.681 145.291 70.681zM180.514 220.634h-74.295 v90h74.295V220.634zM322.844 56.107c-10.834 0 -20.32 5.86 -25.471 14.573h25.469c8.284 0 15 6.716 15 15s-6.716 15 -15 15h-25.47 c5.15 8.713 14.638 14.573 25.472 14.573c16.306 0 29.571 -13.267 29.571 -29.572C352.415 69.375 339.149 56.107 322.844 56.107z"/><glyph unicode="&#xE004;" glyph-name="vehicle1" horiz-adv-x="512" d="M256 330.24c-76.21632 0 -138.24 -62.01344 -138.24 -138.24c0 -76.21632 62.02368 -138.24 138.24 -138.24S394.24 115.78368 394.24 192C394.24 268.22656 332.21632 330.24 256 330.24 zM256 177.96096c-7.75168 0 -14.04928 6.2976 -14.04928 14.03904s6.2976 14.03904 14.04928 14.03904s14.04928 -6.2976 14.04928 -14.03904S263.75168 177.96096 256 177.96096zM271.96416 222.43328c-1.83296 0.96256 -3.71712 1.7408 -5.72416 2.36544v75.0592c22.21056 -2.08896 42.47552 -10.87488 58.75712 -24.36096L271.96416 222.43328zM245.76 224.79872 c-1.97632 -0.62464 -3.8912 -1.40288 -5.72416 -2.36544l-53.06368 53.06368c16.2816 13.47584 36.5568 22.272 58.76736 24.36096L245.76 224.79872L245.76 224.79872zM225.55648 207.95392 c-0.96256 -1.82272 -1.7408 -3.71712 -2.3552 -5.71392h-75.04896c2.08896 22.20032 10.87488 42.48576 24.3712 58.76736L225.55648 207.95392zM223.20128 181.76 c0.62464 -1.9968 1.40288 -3.8912 2.3552 -5.72416l-53.06368 -53.05344c-13.47584 16.29184 -22.272 36.56704 -24.36096 58.76736H223.20128zM240.03584 161.55648 c1.83296 -0.96256 3.71712 -1.7408 5.72416 -2.3552v-75.0592c-22.21056 2.08896 -42.47552 10.87488 -58.75712 24.36096L240.03584 161.55648zM266.24 159.20128 c1.97632 0.62464 3.8912 1.40288 5.72416 2.3552l53.06368 -53.06368c-16.2816 -13.47584 -36.5568 -22.272 -58.76736 -24.36096L266.24 159.20128L266.24 159.20128zM286.44352 176.03584 c0.96256 1.83296 1.7408 3.71712 2.3552 5.72416h75.04896c-2.08896 -22.20032 -10.87488 -42.47552 -24.3712 -58.76736L286.44352 176.03584zM288.79872 202.24 c-0.62464 1.9968 -1.40288 3.8912 -2.3552 5.71392l53.06368 53.05344c13.47584 -16.2816 22.272 -36.56704 24.36096 -58.76736H288.79872zM328.63232 279.11168 c-17.23392 14.3872 -38.76864 23.73632 -62.39232 25.856v4.27008c24.7808 -2.1504 47.38048 -11.96032 65.40288 -27.11552L328.63232 279.11168zM245.76 304.96768 c-23.62368 -2.12992 -45.1584 -11.4688 -62.39232 -25.856l-3.01056 3.01056c18.0224 15.14496 40.62208 24.96512 65.40288 27.11552V304.96768zM168.88832 264.63232 c-14.3872 -17.23392 -23.73632 -38.77888 -25.856 -62.39232h-4.27008c2.16064 24.7808 11.96032 47.38048 27.11552 65.40288L168.88832 264.63232zM143.03232 181.76 c2.11968 -23.62368 11.4688 -45.1584 25.856 -62.39232l-3.01056 -3.01056c-15.1552 18.0224 -24.96512 40.62208 -27.11552 65.40288H143.03232zM183.36768 104.88832 c17.23392 -14.3872 38.76864 -23.73632 62.39232 -25.856v-4.27008c-24.7808 2.1504 -47.38048 11.96032 -65.40288 27.11552L183.36768 104.88832zM266.24 79.03232 c23.62368 2.12992 45.1584 11.4688 62.39232 25.856l3.01056 -3.01056c-18.0224 -15.14496 -40.62208 -24.96512 -65.40288 -27.11552V79.03232L266.24 79.03232zM343.11168 119.36768 c14.3872 17.23392 23.73632 38.76864 25.856 62.39232h4.27008c-2.16064 -24.7808 -11.96032 -47.38048 -27.11552 -65.40288L343.11168 119.36768zM368.96768 202.24 c-2.11968 23.61344 -11.4688 45.1584 -25.856 62.39232l3.01056 3.01056c15.1552 -18.0224 24.96512 -40.62208 27.11552 -65.40288H368.96768z"/></font></defs></svg>
